module gitlab.com/avi-paint/avi-api

go 1.17

require (
	github.com/cenkalti/backoff/v4 v4.1.2
	github.com/go-openapi/errors v0.20.1
	github.com/go-openapi/loads v0.21.0
	github.com/go-openapi/runtime v0.21.0
	github.com/go-openapi/spec v0.20.4
	github.com/go-openapi/strfmt v0.21.0
	github.com/go-openapi/swag v0.19.15
	github.com/go-openapi/validate v0.20.3
	github.com/jessevdk/go-flags v1.5.0
	github.com/jmoiron/sqlx v1.3.4
	github.com/lib/pq v1.10.4
	github.com/pkg/errors v0.9.1
	github.com/powerman/appcfg v0.8.0
	github.com/powerman/getenv v0.1.0
	github.com/powerman/go-service-example v1.4.0
	github.com/powerman/must v0.1.1
	github.com/powerman/structlog v0.7.3
	github.com/pressly/goose v2.7.0+incompatible
	github.com/prometheus/client_golang v1.11.0
	github.com/rs/cors v1.8.0
	github.com/sebest/xff v0.0.0-20210106013422-671bd2870b3a
	github.com/streadway/amqp v1.0.0
	gitlab.com/avi-paint/proto/image-service-proto v1.0.6
	golang.org/x/net v0.0.0-20210421230115-4e50805a0758
	google.golang.org/grpc v1.42.0
	gopkg.in/yaml.v3 v3.0.0-20210107192922-496545a6307b
)

require (
	4d63.com/gochecknoglobals v0.0.0-20201008074935-acfc0b28355a // indirect
	github.com/BurntSushi/toml v0.3.1 // indirect
	github.com/Djarvur/go-err113 v0.0.0-20210108212216-aea10b59be24 // indirect
	github.com/Masterminds/semver v1.5.0 // indirect
	github.com/OpenPeeDeeP/depguard v1.0.1 // indirect
	github.com/PuerkitoBio/purell v1.1.1 // indirect
	github.com/PuerkitoBio/urlesc v0.0.0-20170810143723-de5bf2ad4578 // indirect
	github.com/alexkohler/prealloc v1.0.0 // indirect
	github.com/asaskevich/govalidator v0.0.0-20200907205600-7a23bdc65eef // indirect
	github.com/ashanbrown/forbidigo v1.2.0 // indirect
	github.com/ashanbrown/makezero v0.0.0-20210520155254-b6261585ddde // indirect
	github.com/beorn7/perks v1.0.1 // indirect
	github.com/bkielbasa/cyclop v1.2.0 // indirect
	github.com/bombsimon/wsl/v3 v3.3.0 // indirect
	github.com/cespare/xxhash/v2 v2.1.1 // indirect
	github.com/charithe/durationcheck v0.0.8 // indirect
	github.com/chavacava/garif v0.0.0-20210405164556-e8a0a408d6af // indirect
	github.com/cheekybits/genny v1.0.1-0.20200709201058-3e22f1a88ff2 // indirect
	github.com/daixiang0/gci v0.2.8 // indirect
	github.com/davecgh/go-spew v1.1.1 // indirect
	github.com/denis-tingajkin/go-header v0.4.2 // indirect
	github.com/docker/go-units v0.4.0 // indirect
	github.com/esimonov/ifshort v1.0.2 // indirect
	github.com/ettle/strcase v0.1.1 // indirect
	github.com/fatih/color v1.12.0 // indirect
	github.com/fatih/structtag v1.2.0 // indirect
	github.com/fsnotify/fsnotify v1.4.9 // indirect
	github.com/fzipp/gocyclo v0.3.1 // indirect
	github.com/go-critic/go-critic v0.5.6 // indirect
	github.com/go-openapi/analysis v0.20.1 // indirect
	github.com/go-openapi/jsonpointer v0.19.5 // indirect
	github.com/go-openapi/jsonreference v0.19.6 // indirect
	github.com/go-stack/stack v1.8.0 // indirect
	github.com/go-toolsmith/astcast v1.0.0 // indirect
	github.com/go-toolsmith/astcopy v1.0.0 // indirect
	github.com/go-toolsmith/astequal v1.0.0 // indirect
	github.com/go-toolsmith/astfmt v1.0.0 // indirect
	github.com/go-toolsmith/astp v1.0.0 // indirect
	github.com/go-toolsmith/strparse v1.0.0 // indirect
	github.com/go-toolsmith/typep v1.0.2 // indirect
	github.com/go-xmlfmt/xmlfmt v0.0.0-20191208150333-d5b6f63a941b // indirect
	github.com/gobwas/glob v0.2.3 // indirect
	github.com/gofrs/flock v0.8.0 // indirect
	github.com/golang/protobuf v1.5.0 // indirect
	github.com/golangci/check v0.0.0-20180506172741-cfe4005ccda2 // indirect
	github.com/golangci/dupl v0.0.0-20180902072040-3e9179ac440a // indirect
	github.com/golangci/go-misc v0.0.0-20180628070357-927a3d87b613 // indirect
	github.com/golangci/gofmt v0.0.0-20190930125516-244bba706f1a // indirect
	github.com/golangci/golangci-lint v1.41.1 // indirect
	github.com/golangci/lint-1 v0.0.0-20191013205115-297bf364a8e0 // indirect
	github.com/golangci/maligned v0.0.0-20180506175553-b1d89398deca // indirect
	github.com/golangci/misspell v0.3.5 // indirect
	github.com/golangci/revgrep v0.0.0-20210208091834-cd28932614b5 // indirect
	github.com/golangci/unconvert v0.0.0-20180507085042-28b1c447d1f4 // indirect
	github.com/google/go-cmp v0.5.5 // indirect
	github.com/gordonklaus/ineffassign v0.0.0-20210225214923-2e10b2664254 // indirect
	github.com/gostaticanalysis/analysisutil v0.4.1 // indirect
	github.com/gostaticanalysis/comment v1.4.1 // indirect
	github.com/gostaticanalysis/forcetypeassert v0.0.0-20200621232751-01d4955beaa5 // indirect
	github.com/gostaticanalysis/nilerr v0.1.1 // indirect
	github.com/hashicorp/errwrap v1.0.0 // indirect
	github.com/hashicorp/go-multierror v1.1.1 // indirect
	github.com/hashicorp/hcl v1.0.0 // indirect
	github.com/inconshreveable/mousetrap v1.0.0 // indirect
	github.com/jgautheron/goconst v1.5.1 // indirect
	github.com/jingyugao/rowserrcheck v1.1.0 // indirect
	github.com/jirfag/go-printf-func-name v0.0.0-20200119135958-7558a9eaa5af // indirect
	github.com/josharian/intern v1.0.0 // indirect
	github.com/julz/importas v0.0.0-20210419104244-841f0c0fe66d // indirect
	github.com/kisielk/errcheck v1.6.0 // indirect
	github.com/kisielk/gotool v1.0.0 // indirect
	github.com/kulti/thelper v0.4.0 // indirect
	github.com/kunwardeep/paralleltest v1.0.2 // indirect
	github.com/kyoh86/exportloopref v0.1.8 // indirect
	github.com/ldez/gomoddirectives v0.2.1 // indirect
	github.com/ldez/tagliatelle v0.2.0 // indirect
	github.com/magiconair/properties v1.8.1 // indirect
	github.com/mailru/easyjson v0.7.6 // indirect
	github.com/maratori/testpackage v1.0.1 // indirect
	github.com/matoous/godox v0.0.0-20210227103229-6504466cf951 // indirect
	github.com/mattn/go-colorable v0.1.8 // indirect
	github.com/mattn/go-isatty v0.0.12 // indirect
	github.com/mattn/go-runewidth v0.0.9 // indirect
	github.com/mattn/goveralls v0.0.11 // indirect
	github.com/matttproud/golang_protobuf_extensions v1.0.1 // indirect
	github.com/mbilski/exhaustivestruct v1.2.0 // indirect
	github.com/mgechev/dots v0.0.0-20190921121421-c36f7dcfbb81 // indirect
	github.com/mgechev/revive v1.0.7 // indirect
	github.com/mitchellh/go-homedir v1.1.0 // indirect
	github.com/mitchellh/mapstructure v1.4.1 // indirect
	github.com/moricho/tparallel v0.2.1 // indirect
	github.com/nakabonne/nestif v0.3.0 // indirect
	github.com/nbutton23/zxcvbn-go v0.0.0-20210217022336-fa2cb2858354 // indirect
	github.com/nishanths/exhaustive v0.1.0 // indirect
	github.com/nishanths/predeclared v0.2.1 // indirect
	github.com/oklog/ulid v1.3.1 // indirect
	github.com/olekukonko/tablewriter v0.0.5 // indirect
	github.com/pelletier/go-toml v1.8.0 // indirect
	github.com/phayes/checkstyle v0.0.0-20170904204023-bfd46e6a821d // indirect
	github.com/pmezard/go-difflib v1.0.0 // indirect
	github.com/polyfloyd/go-errorlint v0.0.0-20210510181950-ab96adb96fea // indirect
	github.com/prometheus/client_model v0.2.0 // indirect
	github.com/prometheus/common v0.26.0 // indirect
	github.com/prometheus/procfs v0.6.0 // indirect
	github.com/quasilyte/go-ruleguard v0.3.4 // indirect
	github.com/quasilyte/regex/syntax v0.0.0-20200407221936-30656e2c4a95 // indirect
	github.com/ryancurrah/gomodguard v1.2.2 // indirect
	github.com/ryanrolds/sqlclosecheck v0.3.0 // indirect
	github.com/sanposhiho/wastedassign/v2 v2.0.6 // indirect
	github.com/securego/gosec/v2 v2.8.0 // indirect
	github.com/shazow/go-diff v0.0.0-20160112020656-b6b7b6733b8c // indirect
	github.com/sirupsen/logrus v1.8.1 // indirect
	github.com/sonatard/noctx v0.0.1 // indirect
	github.com/sourcegraph/go-diff v0.6.1 // indirect
	github.com/spf13/afero v1.3.2 // indirect
	github.com/spf13/cast v1.3.1 // indirect
	github.com/spf13/cobra v1.1.3 // indirect
	github.com/spf13/jwalterweatherman v1.1.0 // indirect
	github.com/spf13/pflag v1.0.5 // indirect
	github.com/spf13/viper v1.7.1 // indirect
	github.com/ssgreg/nlreturn/v2 v2.1.0 // indirect
	github.com/stretchr/objx v0.2.0 // indirect
	github.com/stretchr/testify v1.7.0 // indirect
	github.com/subosito/gotenv v1.2.0 // indirect
	github.com/tdakkota/asciicheck v0.0.0-20200416200610-e657995f937b // indirect
	github.com/tetafro/godot v1.4.7 // indirect
	github.com/timakin/bodyclose v0.0.0-20200424151742-cb6215831a94 // indirect
	github.com/tomarrell/wrapcheck/v2 v2.1.0 // indirect
	github.com/tommy-muehle/go-mnd/v2 v2.4.0 // indirect
	github.com/ultraware/funlen v0.0.3 // indirect
	github.com/ultraware/whitespace v0.0.4 // indirect
	github.com/uudashr/gocognit v1.0.1 // indirect
	github.com/yeya24/promlinter v0.1.0 // indirect
	go.mongodb.org/mongo-driver v1.7.3 // indirect
	golang.org/x/mod v0.4.2 // indirect
	golang.org/x/sys v0.0.0-20210616094352-59db8d763f22 // indirect
	golang.org/x/text v0.3.7 // indirect
	golang.org/x/tools v0.1.3 // indirect
	golang.org/x/xerrors v0.0.0-20200804184101-5ec99f83aff1 // indirect
	google.golang.org/genproto v0.0.0-20200707001353-8e8330bf89df // indirect
	google.golang.org/protobuf v1.27.1 // indirect
	gopkg.in/ini.v1 v1.62.0 // indirect
	gopkg.in/yaml.v2 v2.4.0 // indirect
	honnef.co/go/tools v0.2.0 // indirect
	mvdan.cc/gofumpt v0.1.1 // indirect
	mvdan.cc/interfacer v0.0.0-20180901003855-c20040233aed // indirect
	mvdan.cc/lint v0.0.0-20170908181259-adc824a0674b // indirect
	mvdan.cc/unparam v0.0.0-20210104141923-aac4ce9116a7 // indirect
)
